{
	"info": {
		"_postman_id": "7562c367-828c-4349-aad1-c9c86dd04a69",
		"name": "Tests_Wemeet_API",
		"schema": "https://schema.getpostman.com/json/collection/v2.1.0/collection.json"
	},
	"item": [
		{
			"name": "testGetAllEvents",
			"event": [
				{
					"listen": "test",
					"script": {
						"exec": [
							"pm.test(\"code status 200\", () => {\r",
							"    pm.response.to.have.status(200);\r",
							"});\r",
							"\r",
							"pm.test(\"tous les events sont affichés\", () => {\r",
							"    const response = pm.response.json();\r",
							"    pm.expect(response).to.be.an('array').that.is.not.empty;\r",
							"});"
						],
						"type": "text/javascript"
					}
				}
			],
			"request": {
				"auth": {
					"type": "bearer",
					"bearer": [
						{
							"key": "token",
							"value": "eyJhbGciOiJIUzI1NiIsInR5cCI6IkpXVCJ9.eyJzdGF0dXQiOiJ1c2VyIiwidmFsdWUiOnsiaWQiOjEsImZpcnN0X25hbWUiOiJWaWFsbHkiLCJsYXN0X25hbWUiOiJBcm1lbCJ9LCJpYXQiOjE2MzkyNTI3ODYsImV4cCI6MTYzOTMzOTE4Nn0.c-tjSnwp_m_cthSQAPOXcG0JzPPHUevOWs7LxlO0km4",
							"type": "string"
						}
					]
				},
				"method": "GET",
				"header": [],
				"url": {
					"raw": "http://localhost:3001/event/",
					"protocol": "http",
					"host": [
						"localhost"
					],
					"port": "3001",
					"path": [
						"event",
						""
					]
				}
			},
			"response": []
		},
		{
			"name": "testGetEvent1",
			"request": {
				"method": "GET",
				"header": [],
				"url": null
			},
			"response": []
		},
		{
			"name": "testGetParticipantsOfEvent1",
			"request": {
				"method": "GET",
				"header": [],
				"url": null
			},
			"response": []
		},
		{
			"name": "testGetUser1",
			"request": {
				"method": "GET",
				"header": [],
				"url": null
			},
			"response": []
		},
		{
			"name": "testPostUser",
			"request": {
				"method": "GET",
				"header": [],
				"url": null
			},
			"response": []
		},
		{
			"name": "testUpdateUser",
			"request": {
				"method": "GET",
				"header": [],
				"url": null
			},
			"response": []
		},
		{
			"name": "testDeleteUser",
			"request": {
				"method": "GET",
				"header": [],
				"url": null
			},
			"response": []
		}
	]
}